﻿Projekt,Datum,Uživatel,Aktivita,Úkol,Komentář,Hodiny
CityVizor,2019-08-31,Pavla Kadlecová,produkce,Úkol #4281: Úvaly,"import dat, komunikace, evidence",1.00
CityVizor,2019-08-31,Pavla Kadlecová,produkce,Úkol #4314: Strategie CityVizoru,"aktualizace strategie CV, strategie CV  - připomínky - zapracování",2.25
CityVizor,2019-08-31,Pavla Kadlecová,produkce,Úkol #4210: Praha 7,"import dat, komunikace, evidence",0.50
CityVizor,2019-08-31,Pavla Kadlecová,produkce,Úkol #4316: Praha 14,komunikace + evidence,0.50
CityVizor,2019-08-31,Pavla Kadlecová,produkce,Úkol #4315: Jeseník,komunikace - dotazy k CV + evidence,0.25
CityVizor,2019-08-31,Pavla Kadlecová,produkce,Úkol #4272: Čáslav,Čáslav - komunikace (tel.+ mail + evidence),0.50
CityVizor,2019-08-31,Pavla Kadlecová,režie,Úkol #4197: administrativa a komunikace +hromadná (CV),"školení k  CV (VO + OP), shrnutí závěrů a poznámek z diskuze o CV, negunkční odkaz v demu CV - hlášení + github + komunikace, pořádek ve všech  možných poznámkách k CV, organizece interní schůzky k CV + schůzky s Č.D, komunikace s Martinem K. + příprava  + záznam závěrů a informací + komunikace s LN, příprava agendy na interní schůzku k CV + pozvánka, pad CV, kontrola všech poznámek k CV + jejich ""učesání"", porada k CV + komunikace s LN, sumarizace poznámek  - zápis z porady",13.00
agenda,2019-08-31,Pavla Kadlecová,režie,Úkol #4078: jednání výboru OM,"výbor, zápis, úkoly redmine",3.50
agenda,2019-08-31,Pavla Kadlecová,režie,Úkol #4086: administrativa a komunikace (agenda),"komunikace Riot, maily, redmine - komunikace, telefonát s LN - priority, redmine, Choceň, problém v Riot, změna serveru Thunderbird,čištění padu výboru,čištění úkolů, stanovení priorit",6.00
