2020-10-13	11:03:32	Vít Olmr Psáry	Pro
2020-10-13	11:03:57	Ladislav Nešněra	      Členská schůze volí za členy výboru:

    1. Štěpána Štrébla (Praha 3)
    2. Víta Olmra (Psáry)
    3. Jiřího Marka
    4. Jiřího Hlavenku (manažerský pohled a napojení na kraje)
2020-10-13	11:04:08	PetrAdamec	Pro
2020-10-13	11:04:13	Michal Šmarda (NMnM)	Bod č. 4 - Michal Šmarda - PRO
2020-10-13	11:04:20	Štěpán Štrébl (Praha3)	pro
2020-10-13	11:04:40	Ondřej Kotas (Brno)	pro
2020-10-13	11:04:56	Lukáš Jelínek (Kutná Hora)	Pro
2020-10-13	13:56:03	Brno_Medlánky	PRO
2020-10-13	15:40:52	Vít Olmr Psáry	[11:03:57] Ladislav Nešněra:       Členská schůze volí za členy výboru:

    1. Štěpána Štrébla (Praha 3)
    2. Víta Olmra (Psáry)
    3. Jiřího Marka
    4. Jiřího Hlavenku (manažerský pohled a napojení na kraje)
2020-10-13	15:41:03	Tomas.Kratochvil	Jsem pro
2020-10-13	16:04:49	Jan Adamec Praha 12	pro
