﻿Projekt,Datum,Uživatel,Aktivita,Úkol,Komentář,Hodiny
agenda,29.01.2018,Marcel Kolaja,režie,Úkol #4078: Jednání výboru OM,účast MK na jednání výboru 15.1.2018,2.00
agenda,29.01.2018,Marcel Kolaja,režie,Úkol #4078: Jednání výboru OM,účast MK na jednání výboru 29.1.2018,1.00
agenda,29.01.2018,Marcel Kolaja,režie,Úkol #4106: proplatit fakturu za vedení účetnictví 12/2017,vystavení faktury a její proplacení,0.25
agenda,29.01.2018,Marcel Kolaja,režie,Úkol #4105: proplatit fakturu za vedení účetnictví 11/2017,vystavení faktury a její proplacení,0.25
agenda,15.01.2018,Marcel Kolaja,režie,Úkol #3897: proplatit odměny za září 2016 -- květen 2018,kontrola výkazu práce Daniela Koláře za 12/2017,0.25
agenda,14.01.2018,Marcel Kolaja,režie,Úkol #3897: proplatit odměny za září 2016 -- květen 2018,proplacení DPP Daniela Koláře za 11/2017,0.25
agenda,09.01.2018,Marcel Kolaja,režie,Úkol #3897: proplatit odměny za září 2016 -- květen 2018,"vystavení výkazu práce Daniela Koláře za 11/2017 a dotaz na účetního, jak proplatit a co s prohlášením zaměstnance na rok 2018",0.25
agenda,09.01.2018,Marcel Kolaja,režie,Úkol #4078: Jednání výboru OM,účast MK na jednání výboru 8.1.2018,1.00
agenda,02.01.2018,Marcel Kolaja,režie,Úkol #4093: zveřejnit zápis z členské schůze 2017,dodání změny jednacího řádu,0.25
