﻿Projekt,Datum,Uživatel,Aktivita,Úkol,Komentář,Hodiny
agenda,28.02.2018,Daniel Kolář,produkce,Úkol #4137: Konference Inspirujme se a Open Data Expo,Účast na Open Data Expu,12.50
agenda,27.02.2018,Daniel Kolář,produkce,Úkol #4137: Konference Inspirujme se a Open Data Expo,Účast na konferenci Inspirujme Se,12.00
CityVizor,26.02.2018,Daniel Kolář,produkce,Úkol #3935: Organizace a vývoj,zpracovani dat Prahy 7 a komunikace s Internet Streamem,2.00
agenda,26.02.2018,Daniel Kolář,režie,Úkol #4078: Jednání výboru OM,Jednání výboru 26.2.,1.25
CityVizor,26.02.2018,Daniel Kolář,produkce,Úkol #3935: Organizace a vývoj,Export dat na Praze 7,1.50
CityVizor,26.02.2018,Daniel Kolář,produkce,Úkol #3935: Organizace a vývoj,Kontrola dat pro Prahu 7 v CityVizoru,1.00
agenda,26.02.2018,Daniel Kolář,produkce,Úkol #4137: Konference Inspirujme se a Open Data Expo,Příprava prezentace na konferenci Inspirujme se,2.00
agenda,25.02.2018,Daniel Kolář,produkce,Úkol #4137: Konference Inspirujme se a Open Data Expo,Příprava prezentace na konferenci Inspirujme se,6.00
CityVizor,23.02.2018,Daniel Kolář,produkce,Úkol #4077: Komunikace s městy,Komunikace se zájemci o CityVizor,1.00
CityVizor,22.02.2018,Daniel Kolář,produkce,Úkol #3935: Organizace a vývoj,"Ukoly pro Martina, úprava letáku CityVizor",1.00
CityVizor,21.02.2018,Daniel Kolář,produkce,Úkol #3935: Organizace a vývoj,Koordinace vývoje s Martinem Kopeckem,1.50
CityVizor,21.02.2018,Daniel Kolář,produkce,Úkol #4077: Komunikace s městy,Komunikace s členskými městy,1.50
CityVizor,21.02.2018,Daniel Kolář,produkce,Úkol #3935: Organizace a vývoj,Organizace spolupráce s firmou Internet Stream,1.00
agenda,21.02.2018,Daniel Kolář,produkce,Úkol #4137: Konference Inspirujme se a Open Data Expo,Příprava prezentace na konferenci Inspirujme se,2.75
agenda,20.02.2018,Daniel Kolář,produkce,Úkol #4137: Konference Inspirujme se a Open Data Expo,Příprava prezentace na konferenci Inspirujme se,4.75
CityVizor,19.02.2018,Daniel Kolář,produkce,Úkol #3935: Organizace a vývoj,"Úprava dat pro Prahu 7 a NMNM, následná komunikace s Prahou 7",2.50
CityVizor,18.02.2018,Daniel Kolář,produkce,Úkol #3935: Organizace a vývoj,Organizace spolupráce s firmou Internet Stream,3.00
CityVizor,13.02.2018,Daniel Kolář,produkce,Úkol #3935: Organizace a vývoj,priprava návrhu rozpočtu pro CityVizor,2.00
agenda,12.02.2018,Daniel Kolář,režie,Úkol #4078: Jednání výboru OM, Výbor 12.2. (zrušený) včetně připravy(návrh ohledně CityVizoru),2.00
CityVizor,08.02.2018,Daniel Kolář,produkce,Úkol #3935: Organizace a vývoj,Testování aktualizované verze cityvizoru,1.25
CityVizor,08.02.2018,Daniel Kolář,produkce,Úkol #3935: Organizace a vývoj,"Schůzka s jednatelem Internet Streamu, vč. cesty",5.75
agenda,08.02.2018,Daniel Kolář,produkce,Úkol #4137: Konference Inspirujme se a Open Data Expo,Příprava podkladů (medailonku) pro Open Data Expo ,0.50
CityVizor,07.02.2018,Daniel Kolář,produkce,Úkol #3935: Organizace a vývoj,Koordinace vývoje s Martinem Kopeckem,2.00
agenda,07.02.2018,Daniel Kolář,režie,Úkol #4086: Administrativa,Aktualizace vykazu v redmine,0.50
CityVizor,07.02.2018,Daniel Kolář,produkce,Úkol #3935: Organizace a vývoj,Export dat na Praze 7,1.75
agenda,05.02.2018,Daniel Kolář,režie,Úkol #4078: Jednání výboru OM,"Zápis úkolů z jednání 19.1. do Redmine, e-maily členům Výboru ohledně úkolů",0.75
CityVizor,05.02.2018,Daniel Kolář,produkce,Úkol #3935: Organizace a vývoj,Domluva schůzka s jednatelem Internet Streamu,0.50
CityVizor,05.02.2018,Daniel Kolář,produkce,Úkol #4077: Komunikace s městy,Komunikace se zájemci o CityVizor,2.00
CityVizor,01.02.2018,Daniel Kolář,produkce,Úkol #4077: Komunikace s městy,Komunikace - Domluva exportu dat na Praze 7,0.50
