﻿Projekt,Datum,Uživatel,Aktivita,Úkol,Komentář,Hodiny
agenda,22.05.2018,Marcel Kolaja,režie,Úkol #3897: proplatit odměny za září 2016 -- květen 2018,kontrola a vystavení výkazu Daniela Koláře za 12/2017 a proplacení,0.25
agenda,21.05.2018,Marcel Kolaja,režie,Úkol #4132: proplatit fakturu za vedení účetnictví 3/2018,vystavení faktury a její proplacení,0.25
agenda,09.05.2018,Marcel Kolaja,režie,Úkol #4131: proplatit fakturu za vedení účetnictví 2/2018,vystavení faktury a její proplacení,0.25
