﻿Projekt,Datum,Uživatel,Aktivita,Úkol,Komentář,Hodiny
Registr smluv,31.05.2017,Ladislav Nešněra,produkce,Úkol #4018: zorganizavat videokonferenci s BISON,organizace videokonference BISON,0.25
Registr smluv,29.05.2017,Ladislav Nešněra,produkce,Úkol #4003: jednání o požadavcích na spolupráci na aplikaci Evidence smluv spolku BISON,účast na jednání,2.50
Registr smluv,28.05.2017,Ladislav Nešněra,produkce,Úkol #4017: právní problematika souvsející se spolkem BISON,horizontální a vertikální in-house,0.50
Registr smluv,27.05.2017,Ladislav Nešněra,produkce,Úkol #4017: právní problematika souvsející se spolkem BISON,horizontální a vertikální in-house,0.50
Registr smluv,26.05.2017,Ladislav Nešněra,produkce,Úkol #4017: právní problematika souvsející se spolkem BISON,komunikace s BISON,0.50
Registr smluv,25.05.2017,Ladislav Nešněra,produkce,Úkol #4017: právní problematika souvsející se spolkem BISON,popis problematiky horizontální a vertikální in-house,1.00
Registr smluv,25.05.2017,Ladislav Nešněra,produkce,Úkol #4000: jednání o možnostech spolupráce se spolkem BISON,účast na jednání,2.00
Registr smluv,16.05.2017,Ladislav Nešněra,produkce,Úkol #3995: účast na jednání se spolkem BISON 16.5.2017,účast na jednání,4.50
agenda,14.05.2017,Ladislav Nešněra,režie,Úkol #3991: účast na jednání výboru 14.5.2017,výbor + příprava,1.75
agenda,08.05.2017,Ladislav Nešněra,režie,Úkol #3966: účast na jednání výboru 8.5.2017,schůzka výboru,1.25
Registr smluv,04.05.2017,Ladislav Nešněra,produkce,Úkol #3974: jednání o dalším postupu,účast na jednání,2.50
agenda,03.05.2017,Ladislav Nešněra,režie,"Úkol #4019: přehled aplikací, zpráva o činnosti","přehled aplikací, zpráva o činnosti",2.25
