﻿Projekt,Datum,Uživatel,Aktivita,Úkol,Komentář,Hodiny
agenda,29.06.2017,Marcel Kolaja,režie,"Úkol #4012: vlastní členská schůze, příprava i úklid",účast MK na členské schůzi 29.6.2017,6.00
agenda,29.06.2017,Marcel Kolaja,režie,Úkol #3993: účast na jednání výboru 19.6.2017,účast MK na jednání výboru 19.6.2017,1.00
Registr smluv,19.06.2017,Marcel Kolaja,produkce,Úkol #3975: e-mailová komunikace ohledně registru smluv,komunikace se spolkem BISON ohledně možnosti programování dodatečných modulů,0.50
agenda,13.06.2017,Marcel Kolaja,režie,Úkol #4008: vytvořit program na členskou schůzi 2017,diskuze s Ladislavem Nešněrou a Ondřejem Profantem o programu,1.00
agenda,13.06.2017,Marcel Kolaja,režie,Úkol #4006: napsat pozvánku na členskou schůzi,napsání pozvánky na členskou schůzi,2.00
Registr smluv,07.06.2017,Marcel Kolaja,produkce,Úkol #4007: jednání se spolkem BISON o možnostech otevření zdrojového kódu evidence smluv,účast MK na jednání se spolkem BISON 7.6.2017,2.00
agenda,01.06.2017,Marcel Kolaja,režie,Úkol #3854: technicky vyřešit online účast a hlasování na členských schůzích,návrh řešení vdálené účastni na členské schůzi,2.50
